%YAML 1.1
%TAG !u! tag:unity3d.com,2011:
--- !u!114 &11400000
MonoBehaviour:
  m_ObjectHideFlags: 0
  m_CorrespondingSourceObject: {fileID: 0}
  m_PrefabInternal: {fileID: 0}
  m_GameObject: {fileID: 0}
  m_Enabled: 1
  m_EditorHideFlags: 0
  m_Script: {fileID: 11500000, guid: ddb4dd87145df434da193557eb72c84f, type: 3}
  m_Name: GoToBattleSO
  m_EditorClassIdentifier: 
  battleSceneName: Battle
  player: {fileID: 0}
  npc: {fileID: 0}
  objectsToDeactivate:
  - {fileID: 1178911517829104, guid: 4a7595980b966634abdaab25b5f5ebbb, type: 2}
  - {fileID: 1902383173212240, guid: 4674a762fe91b3142bdd340df94302e5, type: 2}
  - {fileID: 1694317288219552, guid: e1b45297a74cd014bb5ae34ae387f69c, type: 2}
